%YAML 1.1
%TAG !u! tag:unity3d.com,2011:
--- !u!1 &300429574972754558
GameObject:
  m_ObjectHideFlags: 0
  m_CorrespondingSourceObject: {fileID: 0}
  m_PrefabInstance: {fileID: 0}
  m_PrefabAsset: {fileID: 0}
  serializedVersion: 6
  m_Component:
  - component: {fileID: 4592475130015617211}
  - component: {fileID: 2461361936156113826}
  m_Layer: 31
  m_Name: Floor Layout
  m_TagString: Untagged
  m_Icon: {fileID: 0}
  m_NavMeshLayer: 0
  m_StaticEditorFlags: 0
  m_IsActive: 1
--- !u!4 &4592475130015617211
Transform:
  m_ObjectHideFlags: 0
  m_CorrespondingSourceObject: {fileID: 0}
  m_PrefabInstance: {fileID: 0}
  m_PrefabAsset: {fileID: 0}
  m_GameObject: {fileID: 300429574972754558}
  m_LocalRotation: {x: 0, y: 0, z: 0, w: 1}
  m_LocalPosition: {x: 0, y: 0, z: 0}
  m_LocalScale: {x: 1, y: 1, z: 1}
  m_Children:
  - {fileID: 577647008601342445}
  m_Father: {fileID: 0}
  m_RootOrder: 0
  m_LocalEulerAnglesHint: {x: 0, y: 0, z: 0}
--- !u!156049354 &2461361936156113826
Grid:
  m_ObjectHideFlags: 0
  m_CorrespondingSourceObject: {fileID: 0}
  m_PrefabInstance: {fileID: 0}
  m_PrefabAsset: {fileID: 0}
  m_GameObject: {fileID: 300429574972754558}
  m_Enabled: 1
  m_CellSize: {x: 1, y: 1, z: 0}
  m_CellGap: {x: 0, y: 0, z: 0}
  m_CellLayout: 0
  m_CellSwizzle: 0
--- !u!1 &4496626773447378182
GameObject:
  m_ObjectHideFlags: 0
  m_CorrespondingSourceObject: {fileID: 0}
  m_PrefabInstance: {fileID: 0}
  m_PrefabAsset: {fileID: 0}
  serializedVersion: 6
  m_Component:
  - component: {fileID: 577647008601342445}
  - component: {fileID: 6228864273445822323}
  - component: {fileID: 3262499605150472502}
  m_Layer: 0
  m_Name: Layer1
  m_TagString: Untagged
  m_Icon: {fileID: 0}
  m_NavMeshLayer: 0
  m_StaticEditorFlags: 0
  m_IsActive: 1
--- !u!4 &577647008601342445
Transform:
  m_ObjectHideFlags: 0
  m_CorrespondingSourceObject: {fileID: 0}
  m_PrefabInstance: {fileID: 0}
  m_PrefabAsset: {fileID: 0}
  m_GameObject: {fileID: 4496626773447378182}
  m_LocalRotation: {x: -0, y: -0, z: -0, w: 1}
  m_LocalPosition: {x: 0, y: 0, z: 0}
  m_LocalScale: {x: 1, y: 1, z: 1}
  m_Children: []
  m_Father: {fileID: 4592475130015617211}
  m_RootOrder: 0
  m_LocalEulerAnglesHint: {x: 0, y: 0, z: 0}
--- !u!1839735485 &6228864273445822323
Tilemap:
  m_ObjectHideFlags: 0
  m_CorrespondingSourceObject: {fileID: 0}
  m_PrefabInstance: {fileID: 0}
  m_PrefabAsset: {fileID: 0}
  m_GameObject: {fileID: 4496626773447378182}
  m_Enabled: 1
  m_Tiles:
  - first: {x: -2, y: -4, z: 0}
    second:
      serializedVersion: 2
      m_TileIndex: 31
      m_TileSpriteIndex: 31
      m_TileMatrixIndex: 0
      m_TileColorIndex: 0
      m_TileObjectToInstantiateIndex: 65535
      m_AllTileFlags: 1073741825
  - first: {x: -1, y: -4, z: 0}
    second:
      serializedVersion: 2
      m_TileIndex: 32
      m_TileSpriteIndex: 32
      m_TileMatrixIndex: 0
      m_TileColorIndex: 0
      m_TileObjectToInstantiateIndex: 65535
      m_AllTileFlags: 1073741825
  - first: {x: 0, y: -4, z: 0}
    second:
      serializedVersion: 2
      m_TileIndex: 33
      m_TileSpriteIndex: 33
      m_TileMatrixIndex: 0
      m_TileColorIndex: 0
      m_TileObjectToInstantiateIndex: 65535
      m_AllTileFlags: 1073741825
  - first: {x: 1, y: -4, z: 0}
    second:
      serializedVersion: 2
      m_TileIndex: 34
      m_TileSpriteIndex: 34
      m_TileMatrixIndex: 0
      m_TileColorIndex: 0
      m_TileObjectToInstantiateIndex: 65535
      m_AllTileFlags: 1073741825
  - first: {x: 2, y: -4, z: 0}
    second:
      serializedVersion: 2
      m_TileIndex: 35
      m_TileSpriteIndex: 35
      m_TileMatrixIndex: 0
      m_TileColorIndex: 0
      m_TileObjectToInstantiateIndex: 65535
      m_AllTileFlags: 1073741825
  - first: {x: 3, y: -4, z: 0}
    second:
      serializedVersion: 2
      m_TileIndex: 4
      m_TileSpriteIndex: 4
      m_TileMatrixIndex: 0
      m_TileColorIndex: 0
      m_TileObjectToInstantiateIndex: 65535
      m_AllTileFlags: 1073741825
  - first: {x: -2, y: -3, z: 0}
    second:
      serializedVersion: 2
      m_TileIndex: 27
      m_TileSpriteIndex: 27
      m_TileMatrixIndex: 0
      m_TileColorIndex: 0
      m_TileObjectToInstantiateIndex: 65535
      m_AllTileFlags: 1073741825
  - first: {x: -1, y: -3, z: 0}
    second:
      serializedVersion: 2
      m_TileIndex: 9
      m_TileSpriteIndex: 9
      m_TileMatrixIndex: 0
      m_TileColorIndex: 0
      m_TileObjectToInstantiateIndex: 65535
      m_AllTileFlags: 1073741825
  - first: {x: 0, y: -3, z: 0}
    second:
      serializedVersion: 2
      m_TileIndex: 28
      m_TileSpriteIndex: 28
      m_TileMatrixIndex: 0
      m_TileColorIndex: 0
      m_TileObjectToInstantiateIndex: 65535
      m_AllTileFlags: 1073741825
  - first: {x: 1, y: -3, z: 0}
    second:
      serializedVersion: 2
      m_TileIndex: 8
      m_TileSpriteIndex: 8
      m_TileMatrixIndex: 0
      m_TileColorIndex: 0
      m_TileObjectToInstantiateIndex: 65535
      m_AllTileFlags: 1073741825
  - first: {x: 2, y: -3, z: 0}
    second:
      serializedVersion: 2
      m_TileIndex: 29
      m_TileSpriteIndex: 29
      m_TileMatrixIndex: 0
      m_TileColorIndex: 0
      m_TileObjectToInstantiateIndex: 65535
      m_AllTileFlags: 1073741825
  - first: {x: 3, y: -3, z: 0}
    second:
      serializedVersion: 2
      m_TileIndex: 30
      m_TileSpriteIndex: 30
      m_TileMatrixIndex: 0
      m_TileColorIndex: 0
      m_TileObjectToInstantiateIndex: 65535
      m_AllTileFlags: 1073741825
  - first: {x: -2, y: -2, z: 0}
    second:
      serializedVersion: 2
      m_TileIndex: 24
      m_TileSpriteIndex: 24
      m_TileMatrixIndex: 0
      m_TileColorIndex: 0
      m_TileObjectToInstantiateIndex: 65535
      m_AllTileFlags: 1073741825
  - first: {x: -1, y: -2, z: 0}
    second:
      serializedVersion: 2
      m_TileIndex: 2
      m_TileSpriteIndex: 2
      m_TileMatrixIndex: 0
      m_TileColorIndex: 0
      m_TileObjectToInstantiateIndex: 65535
      m_AllTileFlags: 1073741825
  - first: {x: 0, y: -2, z: 0}
    second:
      serializedVersion: 2
      m_TileIndex: 5
      m_TileSpriteIndex: 5
      m_TileMatrixIndex: 0
      m_TileColorIndex: 0
      m_TileObjectToInstantiateIndex: 65535
      m_AllTileFlags: 1073741825
  - first: {x: 1, y: -2, z: 0}
    second:
      serializedVersion: 2
      m_TileIndex: 25
      m_TileSpriteIndex: 25
      m_TileMatrixIndex: 0
      m_TileColorIndex: 0
      m_TileObjectToInstantiateIndex: 65535
      m_AllTileFlags: 1073741825
  - first: {x: 2, y: -2, z: 0}
    second:
      serializedVersion: 2
      m_TileIndex: 6
      m_TileSpriteIndex: 6
      m_TileMatrixIndex: 0
      m_TileColorIndex: 0
      m_TileObjectToInstantiateIndex: 65535
      m_AllTileFlags: 1073741825
  - first: {x: 3, y: -2, z: 0}
    second:
      serializedVersion: 2
      m_TileIndex: 26
      m_TileSpriteIndex: 26
      m_TileMatrixIndex: 0
      m_TileColorIndex: 0
      m_TileObjectToInstantiateIndex: 65535
      m_AllTileFlags: 1073741825
  - first: {x: -2, y: -1, z: 0}
    second:
      serializedVersion: 2
      m_TileIndex: 18
      m_TileSpriteIndex: 18
      m_TileMatrixIndex: 0
      m_TileColorIndex: 0
      m_TileObjectToInstantiateIndex: 65535
      m_AllTileFlags: 1073741825
  - first: {x: -1, y: -1, z: 0}
    second:
      serializedVersion: 2
      m_TileIndex: 19
      m_TileSpriteIndex: 19
      m_TileMatrixIndex: 0
      m_TileColorIndex: 0
      m_TileObjectToInstantiateIndex: 65535
      m_AllTileFlags: 1073741825
  - first: {x: 0, y: -1, z: 0}
    second:
      serializedVersion: 2
      m_TileIndex: 20
      m_TileSpriteIndex: 20
      m_TileMatrixIndex: 0
      m_TileColorIndex: 0
      m_TileObjectToInstantiateIndex: 65535
      m_AllTileFlags: 1073741825
  - first: {x: 1, y: -1, z: 0}
    second:
      serializedVersion: 2
      m_TileIndex: 21
      m_TileSpriteIndex: 21
      m_TileMatrixIndex: 0
      m_TileColorIndex: 0
      m_TileObjectToInstantiateIndex: 65535
      m_AllTileFlags: 1073741825
  - first: {x: 2, y: -1, z: 0}
    second:
      serializedVersion: 2
      m_TileIndex: 22
      m_TileSpriteIndex: 22
      m_TileMatrixIndex: 0
      m_TileColorIndex: 0
      m_TileObjectToInstantiateIndex: 65535
      m_AllTileFlags: 1073741825
  - first: {x: 3, y: -1, z: 0}
    second:
      serializedVersion: 2
      m_TileIndex: 23
      m_TileSpriteIndex: 23
      m_TileMatrixIndex: 0
      m_TileColorIndex: 0
      m_TileObjectToInstantiateIndex: 65535
      m_AllTileFlags: 1073741825
  - first: {x: -2, y: 0, z: 0}
    second:
      serializedVersion: 2
      m_TileIndex: 14
      m_TileSpriteIndex: 14
      m_TileMatrixIndex: 0
      m_TileColorIndex: 0
      m_TileObjectToInstantiateIndex: 65535
      m_AllTileFlags: 1073741825
  - first: {x: -1, y: 0, z: 0}
    second:
      serializedVersion: 2
      m_TileIndex: 7
      m_TileSpriteIndex: 7
      m_TileMatrixIndex: 0
      m_TileColorIndex: 0
      m_TileObjectToInstantiateIndex: 65535
      m_AllTileFlags: 1073741825
  - first: {x: 0, y: 0, z: 0}
    second:
      serializedVersion: 2
      m_TileIndex: 15
      m_TileSpriteIndex: 15
      m_TileMatrixIndex: 0
      m_TileColorIndex: 0
      m_TileObjectToInstantiateIndex: 65535
      m_AllTileFlags: 1073741825
  - first: {x: 1, y: 0, z: 0}
    second:
      serializedVersion: 2
      m_TileIndex: 16
      m_TileSpriteIndex: 16
      m_TileMatrixIndex: 0
      m_TileColorIndex: 0
      m_TileObjectToInstantiateIndex: 65535
      m_AllTileFlags: 1073741825
  - first: {x: 2, y: 0, z: 0}
    second:
      serializedVersion: 2
      m_TileIndex: 3
      m_TileSpriteIndex: 3
      m_TileMatrixIndex: 0
      m_TileColorIndex: 0
      m_TileObjectToInstantiateIndex: 65535
      m_AllTileFlags: 1073741825
  - first: {x: 3, y: 0, z: 0}
    second:
      serializedVersion: 2
      m_TileIndex: 17
      m_TileSpriteIndex: 17
      m_TileMatrixIndex: 0
      m_TileColorIndex: 0
      m_TileObjectToInstantiateIndex: 65535
      m_AllTileFlags: 1073741825
  - first: {x: -2, y: 1, z: 0}
    second:
      serializedVersion: 2
      m_TileIndex: 10
      m_TileSpriteIndex: 10
      m_TileMatrixIndex: 0
      m_TileColorIndex: 0
      m_TileObjectToInstantiateIndex: 65535
      m_AllTileFlags: 1073741825
  - first: {x: -1, y: 1, z: 0}
    second:
      serializedVersion: 2
      m_TileIndex: 11
      m_TileSpriteIndex: 11
      m_TileMatrixIndex: 0
      m_TileColorIndex: 0
      m_TileObjectToInstantiateIndex: 65535
      m_AllTileFlags: 1073741825
  - first: {x: 0, y: 1, z: 0}
    second:
      serializedVersion: 2
      m_TileIndex: 1
      m_TileSpriteIndex: 1
      m_TileMatrixIndex: 0
      m_TileColorIndex: 0
      m_TileObjectToInstantiateIndex: 65535
      m_AllTileFlags: 1073741825
  - first: {x: 1, y: 1, z: 0}
    second:
      serializedVersion: 2
      m_TileIndex: 12
      m_TileSpriteIndex: 12
      m_TileMatrixIndex: 0
      m_TileColorIndex: 0
      m_TileObjectToInstantiateIndex: 65535
      m_AllTileFlags: 1073741825
  - first: {x: 2, y: 1, z: 0}
    second:
      serializedVersion: 2
      m_TileIndex: 13
      m_TileSpriteIndex: 13
      m_TileMatrixIndex: 0
      m_TileColorIndex: 0
      m_TileObjectToInstantiateIndex: 65535
      m_AllTileFlags: 1073741825
  - first: {x: 3, y: 1, z: 0}
    second:
      serializedVersion: 2
      m_TileIndex: 0
      m_TileSpriteIndex: 0
      m_TileMatrixIndex: 0
      m_TileColorIndex: 0
      m_TileObjectToInstantiateIndex: 65535
      m_AllTileFlags: 1073741825
  m_AnimatedTiles: {}
  m_TileAssetArray:
  - m_RefCount: 1
    m_Data: {fileID: 11400000, guid: 869467190b0621d4498483e1e5d3e202, type: 2}
  - m_RefCount: 1
    m_Data: {fileID: 11400000, guid: 97f30d1cc1608644b87ec91a0076dcd4, type: 2}
  - m_RefCount: 1
    m_Data: {fileID: 11400000, guid: 1645c111a31a31b4bb3ad566411d6051, type: 2}
  - m_RefCount: 1
    m_Data: {fileID: 11400000, guid: ad83ea74af1ede842ba8bfa96df92445, type: 2}
  - m_RefCount: 1
    m_Data: {fileID: 11400000, guid: 44126f3e6d84ac64aa16b48f72bb5d7a, type: 2}
  - m_RefCount: 1
    m_Data: {fileID: 11400000, guid: 40aae104c78e84748a024463ad299d93, type: 2}
  - m_RefCount: 1
    m_Data: {fileID: 11400000, guid: b7c1fe56875bb3a4296ad484e1a78fa2, type: 2}
  - m_RefCount: 1
    m_Data: {fileID: 11400000, guid: 4e1a7e5eab9901b419e82b7f51017f35, type: 2}
  - m_RefCount: 1
    m_Data: {fileID: 11400000, guid: 9704d108a78db0c4eb87034d2a8e5a4c, type: 2}
  - m_RefCount: 1
    m_Data: {fileID: 11400000, guid: d9bc2b13a1203b443b0413d5e9c40c3e, type: 2}
  - m_RefCount: 1
    m_Data: {fileID: 11400000, guid: 041009c3fd3b34849a5a716eb22f9b79, type: 2}
  - m_RefCount: 1
    m_Data: {fileID: 11400000, guid: a309ccd5885b2374486dacb92ebf4ec1, type: 2}
  - m_RefCount: 1
    m_Data: {fileID: 11400000, guid: 27f566321f5b8d943b2f5d65681babd1, type: 2}
  - m_RefCount: 1
    m_Data: {fileID: 11400000, guid: 7ed3e4e3e00a56341a1bd21d897e6a14, type: 2}
  - m_RefCount: 1
    m_Data: {fileID: 11400000, guid: fde1550f3b13c33409127aa4bd24fc31, type: 2}
  - m_RefCount: 1
    m_Data: {fileID: 11400000, guid: 828f091b1100b7d46aa7c2419d2d6404, type: 2}
  - m_RefCount: 1
    m_Data: {fileID: 11400000, guid: 59568ca979ac4d7438b94019b7a90259, type: 2}
  - m_RefCount: 1
    m_Data: {fileID: 11400000, guid: 8aa14f390f43847419be49d4da5f76cf, type: 2}
  - m_RefCount: 1
    m_Data: {fileID: 11400000, guid: 8d00a0e24a39ce645b5622f722aa1d4d, type: 2}
  - m_RefCount: 1
    m_Data: {fileID: 11400000, guid: 646d315746386824eba6b7c2c20bd015, type: 2}
  - m_RefCount: 1
    m_Data: {fileID: 11400000, guid: 635122b90d734a54f8a4a6c10c1dd580, type: 2}
  - m_RefCount: 1
    m_Data: {fileID: 11400000, guid: 4d9640c6c10e97343bfc7fdbe3919cce, type: 2}
  - m_RefCount: 1
    m_Data: {fileID: 11400000, guid: 12c4f050d11c0ec47865be726b52cef9, type: 2}
  - m_RefCount: 1
    m_Data: {fileID: 11400000, guid: 099ae16d75dfb1e46a020fc460deecc2, type: 2}
  - m_RefCount: 1
    m_Data: {fileID: 11400000, guid: 0ae06dba557f2884eb56cf6230a555f2, type: 2}
  - m_RefCount: 1
    m_Data: {fileID: 11400000, guid: 7ecd89436f3f6c64f873c60c28654933, type: 2}
  - m_RefCount: 1
    m_Data: {fileID: 11400000, guid: 3a613bcb969bfe447ae336746a90aa22, type: 2}
  - m_RefCount: 1
    m_Data: {fileID: 11400000, guid: 20ad665ba825fee46b75a0177df0a5b4, type: 2}
  - m_RefCount: 1
    m_Data: {fileID: 11400000, guid: a76b50c35a200a84b85a2363ef3b2b77, type: 2}
  - m_RefCount: 1
    m_Data: {fileID: 11400000, guid: 154e13d81f7f6384fb540876420aa873, type: 2}
  - m_RefCount: 1
    m_Data: {fileID: 11400000, guid: 608a9762aded8244b823088420cd1bf0, type: 2}
  - m_RefCount: 1
    m_Data: {fileID: 11400000, guid: b4e7171c145daac498b82d9a41e42d6d, type: 2}
  - m_RefCount: 1
    m_Data: {fileID: 11400000, guid: 78f2994e778b2fc4d98ae0ba5600ccb4, type: 2}
  - m_RefCount: 1
    m_Data: {fileID: 11400000, guid: 4a6c656e3fc9a254db1af93b05efc52d, type: 2}
  - m_RefCount: 1
    m_Data: {fileID: 11400000, guid: a7fe26614fcdb134bb57932248135a0f, type: 2}
  - m_RefCount: 1
    m_Data: {fileID: 11400000, guid: a0083b3a767bd5f46822555f55a137f3, type: 2}
  m_TileSpriteArray:
  - m_RefCount: 1
    m_Data: {fileID: -1241980306737625235, guid: b34192e92968f734f9a594fc09127dbc, type: 3}
  - m_RefCount: 1
    m_Data: {fileID: 4114807656206955121, guid: b34192e92968f734f9a594fc09127dbc, type: 3}
  - m_RefCount: 1
    m_Data: {fileID: 926588005349935451, guid: b34192e92968f734f9a594fc09127dbc, type: 3}
  - m_RefCount: 1
    m_Data: {fileID: -3290602337683100780, guid: b34192e92968f734f9a594fc09127dbc, type: 3}
  - m_RefCount: 1
    m_Data: {fileID: -3630472818354095451, guid: b34192e92968f734f9a594fc09127dbc, type: 3}
  - m_RefCount: 1
    m_Data: {fileID: -429499279701228415, guid: b34192e92968f734f9a594fc09127dbc, type: 3}
  - m_RefCount: 1
    m_Data: {fileID: 6133255070267350090, guid: b34192e92968f734f9a594fc09127dbc, type: 3}
  - m_RefCount: 1
    m_Data: {fileID: 8261942236471428423, guid: b34192e92968f734f9a594fc09127dbc, type: 3}
  - m_RefCount: 1
    m_Data: {fileID: -6207359104198669342, guid: b34192e92968f734f9a594fc09127dbc, type: 3}
  - m_RefCount: 1
    m_Data: {fileID: -1009101110262145424, guid: b34192e92968f734f9a594fc09127dbc, type: 3}
  - m_RefCount: 1
    m_Data: {fileID: -9066284809969221756, guid: b34192e92968f734f9a594fc09127dbc, type: 3}
  - m_RefCount: 1
    m_Data: {fileID: -8853885985299481375, guid: b34192e92968f734f9a594fc09127dbc, type: 3}
  - m_RefCount: 1
    m_Data: {fileID: 8830323980644066804, guid: b34192e92968f734f9a594fc09127dbc, type: 3}
  - m_RefCount: 1
    m_Data: {fileID: -3355667466671081588, guid: b34192e92968f734f9a594fc09127dbc, type: 3}
  - m_RefCount: 1
    m_Data: {fileID: 4244980942081165732, guid: b34192e92968f734f9a594fc09127dbc, type: 3}
  - m_RefCount: 1
    m_Data: {fileID: -8556476588391212255, guid: b34192e92968f734f9a594fc09127dbc, type: 3}
  - m_RefCount: 1
    m_Data: {fileID: -1357985523217481653, guid: b34192e92968f734f9a594fc09127dbc, type: 3}
  - m_RefCount: 1
    m_Data: {fileID: 8739905933294637603, guid: b34192e92968f734f9a594fc09127dbc, type: 3}
  - m_RefCount: 1
    m_Data: {fileID: -1023213312051514843, guid: b34192e92968f734f9a594fc09127dbc, type: 3}
  - m_RefCount: 1
    m_Data: {fileID: 2368126782216660748, guid: b34192e92968f734f9a594fc09127dbc, type: 3}
  - m_RefCount: 1
    m_Data: {fileID: -6819492838237487340, guid: b34192e92968f734f9a594fc09127dbc, type: 3}
  - m_RefCount: 1
    m_Data: {fileID: 153883521429518156, guid: b34192e92968f734f9a594fc09127dbc, type: 3}
  - m_RefCount: 1
    m_Data: {fileID: -6647557228450728293, guid: b34192e92968f734f9a594fc09127dbc, type: 3}
  - m_RefCount: 1
    m_Data: {fileID: 3043636118394428461, guid: b34192e92968f734f9a594fc09127dbc, type: 3}
  - m_RefCount: 1
    m_Data: {fileID: -1623664836833976002, guid: b34192e92968f734f9a594fc09127dbc, type: 3}
  - m_RefCount: 1
    m_Data: {fileID: -4033074230028033394, guid: b34192e92968f734f9a594fc09127dbc, type: 3}
  - m_RefCount: 1
    m_Data: {fileID: 3378537211658604376, guid: b34192e92968f734f9a594fc09127dbc, type: 3}
  - m_RefCount: 1
    m_Data: {fileID: -8189027403171609653, guid: b34192e92968f734f9a594fc09127dbc, type: 3}
  - m_RefCount: 1
    m_Data: {fileID: 2740807867952551693, guid: b34192e92968f734f9a594fc09127dbc, type: 3}
  - m_RefCount: 1
    m_Data: {fileID: -6841059586907116553, guid: b34192e92968f734f9a594fc09127dbc, type: 3}
  - m_RefCount: 1
    m_Data: {fileID: -3884694052010208906, guid: b34192e92968f734f9a594fc09127dbc, type: 3}
  - m_RefCount: 1
    m_Data: {fileID: -7369307899823078135, guid: b34192e92968f734f9a594fc09127dbc, type: 3}
  - m_RefCount: 1
    m_Data: {fileID: -3012214444015998351, guid: b34192e92968f734f9a594fc09127dbc, type: 3}
  - m_RefCount: 1
    m_Data: {fileID: -8028650071997904658, guid: b34192e92968f734f9a594fc09127dbc, type: 3}
  - m_RefCount: 1
    m_Data: {fileID: 5098599614009468731, guid: b34192e92968f734f9a594fc09127dbc, type: 3}
  - m_RefCount: 1
    m_Data: {fileID: 183047029646150395, guid: b34192e92968f734f9a594fc09127dbc, type: 3}
  m_TileMatrixArray:
  - m_RefCount: 36
    m_Data:
      e00: 1
      e01: 0
      e02: 0
      e03: 0
      e10: 0
      e11: 1
      e12: 0
      e13: 0
      e20: 0
      e21: 0
      e22: 1
      e23: 0
      e30: 0
      e31: 0
      e32: 0
      e33: 1
  m_TileColorArray:
  - m_RefCount: 36
    m_Data: {r: 1, g: 1, b: 1, a: 1}
  m_TileObjectToInstantiateArray: []
  m_AnimationFrameRate: 1
  m_Color: {r: 1, g: 1, b: 1, a: 1}
  m_Origin: {x: -2, y: -4, z: 0}
  m_Size: {x: 6, y: 6, z: 1}
  m_TileAnchor: {x: 0.5, y: 0.5, z: 0}
  m_TileOrientation: 0
  m_TileOrientationMatrix:
    e00: 1
    e01: 0
    e02: 0
    e03: 0
    e10: 0
    e11: 1
    e12: 0
    e13: 0
    e20: 0
    e21: 0
    e22: 1
    e23: 0
    e30: 0
    e31: 0
    e32: 0
    e33: 1
--- !u!483693784 &3262499605150472502
TilemapRenderer:
  m_ObjectHideFlags: 0
  m_CorrespondingSourceObject: {fileID: 0}
  m_PrefabInstance: {fileID: 0}
  m_PrefabAsset: {fileID: 0}
  m_GameObject: {fileID: 4496626773447378182}
  m_Enabled: 1
  m_CastShadows: 0
  m_ReceiveShadows: 0
  m_DynamicOccludee: 0
  m_MotionVectors: 1
  m_LightProbeUsage: 0
  m_ReflectionProbeUsage: 0
  m_RayTracingMode: 0
  m_RayTraceProcedural: 0
  m_RenderingLayerMask: 1
  m_RendererPriority: 0
  m_Materials:
  - {fileID: 10754, guid: 0000000000000000f000000000000000, type: 0}
  m_StaticBatchInfo:
    firstSubMesh: 0
    subMeshCount: 0
  m_StaticBatchRoot: {fileID: 0}
  m_ProbeAnchor: {fileID: 0}
  m_LightProbeVolumeOverride: {fileID: 0}
  m_ScaleInLightmap: 1
  m_ReceiveGI: 1
  m_PreserveUVs: 0
  m_IgnoreNormalsForChartDetection: 0
  m_ImportantGI: 0
  m_StitchLightmapSeams: 1
  m_SelectedEditorRenderState: 0
  m_MinimumChartSize: 4
  m_AutoUVMaxDistance: 0.5
  m_AutoUVMaxAngle: 89
  m_LightmapParameters: {fileID: 0}
  m_SortingLayerID: 0
  m_SortingLayer: 0
  m_SortingOrder: 0
  m_ChunkSize: {x: 32, y: 32, z: 32}
  m_ChunkCullingBounds: {x: 0, y: 0, z: 0}
  m_MaxChunkCount: 16
  m_MaxFrameAge: 16
  m_SortOrder: 0
  m_Mode: 0
  m_DetectChunkCullingBounds: 0
  m_MaskInteraction: 0
--- !u!114 &2803826309844789917
MonoBehaviour:
  m_ObjectHideFlags: 0
  m_CorrespondingSourceObject: {fileID: 0}
  m_PrefabInstance: {fileID: 0}
  m_PrefabAsset: {fileID: 0}
  m_GameObject: {fileID: 0}
  m_Enabled: 1
  m_EditorHideFlags: 0
  m_Script: {fileID: 12395, guid: 0000000000000000e000000000000000, type: 0}
  m_Name: Palette Settings
  m_EditorClassIdentifier: 
  cellSizing: 0
